{
  "id": 2,
  "name": "AMD A9",
  "image": "/assets/images/processor.png",
  "price": "4000",
  "desc": "Процессор, классно пишет в память, суется в материнскую плату",
  "props": [
    {
      "name": "Скорость",
      "value": "Быстрый"
    },
    {
      "name": "Производитель",
      "value": "AMD"
    },
    {
      "name": "Сокет",
      "value": "Очень крутой"
    }
  ]
}