{
  "id": 9,
  "name": "ASUS",
  "image": "/assets/images/motherboard.png",
  "price": "3000",
  "desc": "Материнская плата",
  "props": [
    {
      "name": "Кол-во USB",
      "value": "6"
    },
    {
      "name": "Производитель",
      "value": "ASUS"
    },
    {
      "name": "Сокет",
      "value": "Очень крутой"
    }
  ]
}